
country_decisions = {

	castellyr_nation = {
		major = yes
		potential = {
			capital_scope = {
				region = inner_castanor_region
			}
			OR = { 
				culture_group = escanni
				has_reform = adventurer_reform
			}
			NOT = { exists = B31 } #Castellyr doesn't exist
			# NOT = { exists = Z34 } #Black Castanor doesn't exist
			# NOT = { exists = B32 } #Castanor doesn't exist
			NOT = { tag = B56 } #Silvermere
			NOT = { tag = B33 } #Blademarches
			NOT = { tag = Z45 } #Vrorenmarch
			NOT = { tag = B58 } #Adenica
			NOT = { tag = B60 } #Farranean
			NOT = { tag = B61 } # Edhardrachon
			
			NOT = { has_country_flag = feudal_escann_kingdom }	#prevents countries like Blademarches from forming
			NOT = { has_country_flag = orc_nation_formed }	#prevents orc formables from forming it
			NOT = { has_country_flag = adventurer_derived_government }	#if you've formed something like Nurcestir, you wont be able to form Castellyr. You need to form it while you're an adventurer

			OR = {
				ai = no
				is_playing_custom_nation = no
			}
			OR = {
				ai = no
				AND = {
					ai = yes
					num_of_cities = 3
				}
			}
			is_colonial_nation = no
			OR = {
				is_former_colonial_nation = no
				AND = {
					is_former_colonial_nation = yes
					ai = no
				}
			}
			normal_or_historical_nations = yes
			was_never_end_game_tag_trigger = yes
			NOT = { has_country_flag = formed_castellyr_flag }
		}
		provinces_to_highlight = {
			OR = {
				AND = {
					province_id = 840
					OR = {
						NOT = { is_core = ROOT }
						NOT = { owned_by = ROOT }
					}
				}
				AND = {
					region = inner_castanor_region
					NOT = {
						calc_true_if = {
							amount = 10
							all_province = {
								region = inner_castanor_region
								owned_by = ROOT
							}
						}
					}
					NOT = { owned_by = ROOT }
				}
			}
		}
		allow = {
			adm_tech = 7
			government_rank = 1
			is_free_or_tributary_trigger = yes
			is_nomad = no
			is_at_war = no
			if = {
				limit = { has_adventurer_reform = yes }
				has_reform = found_our_nation
				has_reform = local_administration
			}
			#num_of_cities = 5
			owns_core_province = 840	#North Citadel
			num_of_owned_provinces_with = {
				value = 10
				region = inner_castanor_region
			}
		}
		effect = {
			if = {
				limit = { has_reform = adventurer_reform }
				set_country_flag = adventurer_derived_government
			}
			change_tag = B31
			set_country_flag = feudal_escann_kingdom
			set_country_flag = no_formable_culture_shift
			clr_country_flag = is_a_county
			if = {
				limit = { has_country_flag = adventurer_derived_government }
				adventurer_legacy_effect = yes
				country_event = { id = marcher.1 days = 1 }
				country_event = { id = adventurer.2 days = 1 }
			}
			hidden_effect = { restore_country_name = yes }
			custom_tooltip = tooltip_castellyrian_culture_provinces
			hidden_effect = {
				every_owned_province = {
					limit = {
						has_owner_culture = yes
						owner = {
							culture_is_human = yes
						}
					}
					change_culture = castellyrian
				}
			}
			if = {
				limit = { ruler_culture = ROOT ruler_is_human = yes }
				set_ruler_culture = castellyrian
			}
			if = {
				limit = { has_heir = yes heir_culture = ROOT heir_is_human = yes }
				set_heir_culture = castellyrian
			}
			if = {
				limit = { has_consort = yes consort_culture = ROOT consort_is_human = yes }
				set_consort_culture = castellyrian
			}
			change_primary_culture = castellyrian
			remove_non_electors_emperors_from_empire_effect = yes
			swap_non_generic_missions = yes
			if = {
				limit = {
					NOT = { government_rank = 2 }
				}
				set_government_rank = 2
			}
			
			#Claims
			castonath_area = {
				limit = {
					NOT = { owned_by = ROOT }
				}
				add_claim = B31
			}
			trialmount_area = {
				limit = {
					NOT = { owned_by = ROOT }
				}
				add_claim = B31
			}
			lower_nath_area = {
				limit = {
					NOT = { owned_by = ROOT }
				}
				add_claim = B31
			}
			upper_nath_area = {
				limit = {
					NOT = { owned_by = ROOT }
				}
				add_claim = B31
			}
			westgate_area = {
				limit = {
					NOT = { owned_by = ROOT }
				}
				add_claim = B31
			}
			southgate_area = {
				limit = {
					NOT = { owned_by = ROOT }
				}
				add_claim = B31
			}
			nortmere_area = {
				limit = {
					NOT = { owned_by = ROOT }
				}
				add_claim = B31
			}
			add_prestige = 50
			add_country_modifier = {
				name = "centralization_modifier"
				duration = 7300
			}
			set_country_flag = formed_castellyr_flag
			clr_country_flag = knightly_order_adventurer
			country_event = { id = adventurer.2 days = 10}
			if = {
				limit = { has_custom_ideas = no }
				country_event = { id = ideagroups.1 } #Swap Ideas
			}
		}
		ai_will_do = {
			factor = 2
		}
		ai_importance = 400
	}
	
	castanor_nation = {
		major = yes
		potential = {
			has_country_flag = escanni_wars_castanor_option_unlocked
			OR = {
				culture_group = escanni
				culture_group = dostanorian_g
				primary_culture = marrodic
			}
			NOT = { has_country_flag = formed_castanor_flag }
			NOT = { has_adventurer_reform = yes }
			NOT = { exists = B32 } #Castanor doesn't exist
			#NOT = { exists = Z34 } #Black Castanor doesn't exist
			#NOT = { tag = B33 } #Blademarches hate Castanor
			NOT = { tag = Z34 }	#Black Castanor cannot into Castanor
			NOT = { has_country_flag = orc_nation_formed }	#prevents orc formables from forming it
			OR = {
				ai = no
				is_playing_custom_nation = no
			}
			OR = {
				ai = no
				AND = {
					ai = yes
					num_of_cities = 3
				}
			}
			is_colonial_nation = no
			OR = {
				is_former_colonial_nation = no
				AND = {
					is_former_colonial_nation = yes
					ai = no
				}
			}
			normal_or_historical_nations = yes
		}
		
		provinces_to_highlight = {
			OR = {
				province_id = 840
				province_id = 833
				province_id = 831
				province_id = 832
			}
			OR = {
				NOT = { owned_by = ROOT }
				NOT = { is_core = ROOT }
			}
		}
		
		allow = {
			#adm_tech = 10
			is_free_or_tributary_trigger = yes
			is_nomad = no
			is_at_war = no
			#num_of_cities = 5
			
			#Requires provinces
			owns_core_province = 840	#North Citadel
			owns_core_province = 833	#North Castonath
			owns_core_province = 831	#South Castonath
			owns_core_province = 832	#West Castonath
			
			840 = { has_province_modifier = castanorian_citadel }
			custom_trigger_tooltip = {
				tooltip = already_attempted_trials
				NOT = { has_ruler_flag = attempted_trials_within_lifetime }
			}
		}
		effect = {
			custom_tooltip = take_trials_form_castanor_effect_tt
			set_country_flag = try_castanor_trials_decision_taken
			set_ruler_flag = attempted_trials_within_lifetime
		}
		ai_will_do = {
			factor = 2
		}
		ai_importance = 400
	}

	blademarches_nation = {
		major = yes
		potential = {
			capital_scope = {
				region = south_castanor_region
			}
			NOT = { has_country_flag = feudal_escann_kingdom }
			NOT = { has_country_flag = adventurer_derived_government }
			OR = {
				ai = no
				is_playing_custom_nation = no
			}
			OR = {
				ai = no
				AND = {
					ai = yes
					num_of_cities = 3
				}
			}
			is_colonial_nation = no
			OR = {
				is_former_colonial_nation = no
				AND = {
					is_former_colonial_nation = yes
					ai = no
				}
			}
			normal_or_historical_nations = yes
			was_never_end_game_tag_trigger = yes
			NOT = { has_country_flag = formed_blademarches_flag }
			NOT = { exists = B33 } #Blademarches doesn't exist
			NOT = { tag = B56 } #Silvermere
			NOT = { tag = B31 } #Castellyr
			NOT = { tag = Z45 } #Vrorenmarch
			NOT = { tag = B58 } #Adenica
			NOT = { tag = B60 } #Farranean
		}
		
		provinces_to_highlight = {
			OR = {
				area = blademarch_area
				area = clovenwood_area
				area = banesfork_area
				area = beastgrave_area
				area = vernham_area
				area = dostans_way_area
				area = devaced_area
			}
			NOT = {
				calc_true_if = {
					amount = 5
					all_province = {
						OR = {
							area = blademarch_area
							area = clovenwood_area
							area = banesfork_area
							area = beastgrave_area
							area = vernham_area
							area = dostans_way_area
							area = devaced_area
						}
						owned_by = ROOT
					}
				}
			}
			NOT = { owned_by = ROOT }
		}
		
		allow = {
			adm_tech = 7
			government_rank = 1
			is_free_or_tributary_trigger = yes
			is_nomad = no
			is_at_war = no
			NOT = { has_country_modifier = monstrous_nation }
			
			if = {
				limit = { has_adventurer_reform = yes }
				has_reform = found_our_nation
				has_reform = local_administration
			}
			#num_of_cities = 5
			
			#Ruler Prerequisites
			OR = {
				mil = 5 #Ruler has at least 5 mil
				ruler_has_personality = just_personality
				ruler_has_personality = righteous_personality
				ruler_has_personality = bold_fighter_personality
				ruler_has_personality = inspiring_leader_personality
			}
			NOT = { ruler_has_personality = craven_personality }
			
			#Province Prerequisites
			num_of_owned_provinces_with = {
				value = 5
				OR = {
					area = blademarch_area
					area = clovenwood_area
					area = banesfork_area
					area = beastgrave_area
					area = vernham_area
					area = dostans_way_area
					area = devaced_area
				}
			}
		}
		effect = {
			if = {
				limit = { has_reform = adventurer_reform }
				set_country_flag = adventurer_derived_government
				tooltip = {
					adventurer_legacy_effect = yes
					country_event = { id = flavor_blademarches.1 days = 1 }
					country_event = { id = adventurer.2 days = 1 }
				}
			}
			change_tag = B33
			if = {
				limit = { has_country_flag = adventurer_derived_government }
				adventurer_legacy_effect = yes
				country_event = { id = flavor_blademarches.1 days = 1 }
				country_event = { id = adventurer.2 days = 1 }
			}
			if = {
				limit = {
					has_country_modifier = human_administration
				}
				custom_tooltip = tooltip_marcher_culture_provinces
				hidden_effect = {
					every_owned_province = {
						limit = {
							has_owner_culture = yes
							owner = {
								culture_is_human = yes
							}
						}
						change_culture = marcher
					}
				}
			}
			if = {
				limit = { ruler_culture = ROOT ruler_is_human = yes }
				set_ruler_culture = marcher
			}
			if = {
				limit = { has_heir = yes heir_culture = ROOT heir_is_human = yes }
				set_heir_culture = marcher
			}
			if = {
				limit = { has_consort = yes consort_culture = ROOT consort_is_human = yes }
				set_consort_culture = marcher
			}
			if = {
				limit = {
					has_country_modifier = human_administration
				}
				change_primary_culture = marcher
				
			}
			set_country_flag = feudal_escann_kingdom
			set_country_flag = no_formable_culture_shift
			hidden_effect = { restore_country_name = yes }
			remove_non_electors_emperors_from_empire_effect = yes
			if = {
				limit = { NOT = { government = monarchy } }
				change_government = monarchy
			}
			add_government_reform = blademarches_kingdom_reform
			if = {
				limit = {
					NOT = { government_rank = 2 }
				}
				set_government_rank = 2
			}
			
			#Claims
			blademarch_area = {
				limit = {
					NOT = { owned_by = ROOT }
				}
				add_claim = B33
			}
			clovenwood_area = {
				limit = {
					NOT = { owned_by = ROOT }
				}
				add_claim = B33
			}
			banesfork_area = {
				limit = {
					NOT = { owned_by = ROOT }
				}
				add_claim = B33
			}
			beastgrave_area = {
				limit = {
					NOT = { owned_by = ROOT }
				}
				add_claim = B33
			}
			vernham_area = {
				limit = {
					NOT = { owned_by = ROOT }
				}
				add_claim = B33
			}
			dostans_way_area = {
				limit = {
					NOT = { owned_by = ROOT }
				}
				add_claim = B33
			}
			add_prestige = 25
			set_country_flag = formed_blademarches_flag
			clr_country_flag = 	knightly_order_adventurer
			country_event = { id = adventurer.2 days = 10}
			if = {
				limit = { has_custom_ideas = no }
				country_event = { id = ideagroups.1 } #Swap Ideas
			}
			country_event = { id = flavor_blademarches.2 days = 5 }
			swap_non_generic_missions = yes
		}
		ai_will_do = {
			factor = 2
			modifier = {	#Orcish Formables won't form Blademarches
				OR = {
					tag = Z50
					tag = Z51
					tag = Z52
					tag = Z53
				}
				factor = 0
			}
		}
		ai_importance = 400
	}
	
	adenica_nation = {
		major = yes
		potential = {
			capital_scope = {
				region = west_castanor_region
			}
			OR = { 
				culture_group = escanni
				has_reform = adventurer_reform
			}
			religion = regent_court
			NOT = { has_country_flag = formed_adenica_flag }
			NOT = { exists = B58 } #Adenica doesn't exist
			NOT = { tag = B56 } #Silvermere
			NOT = { tag = B31 } #Castellyr
			NOT = { tag = B33 } #Blademarches
			NOT = { tag = Z45 } #Vrorenmarch
			NOT = { tag = B60 } #Farranean
			NOT = { tag = B02 } #Corintar
			
			NOT = { has_country_flag = feudal_escann_kingdom }	#prevents countries like Blademarches from forming
			NOT = { has_country_flag = orc_nation_formed }	#prevents orc formables from forming it
			NOT = { has_country_flag = adventurer_derived_government }	#if you've formed something like Nurcestir, you wont be able to form Castellyr. You need to form it while you're an adventurer

			OR = {
				ai = no
				is_playing_custom_nation = no
			}
			OR = {
				ai = no
				AND = {
					ai = yes
					num_of_cities = 3
				}
			}
			is_colonial_nation = no
			OR = {
				is_former_colonial_nation = no
				AND = {
					is_former_colonial_nation = yes
					ai = no
				}
			}
			normal_or_historical_nations = yes
			was_never_end_game_tag_trigger = yes
		}
		
		provinces_to_highlight = {
			OR = {
				AND = {
					province_id = 774
					OR = {
						NOT = { is_core = ROOT }
						NOT = { owned_by = ROOT }
					}
				}
				AND = {
					region = west_castanor_region
					NOT = {
						calc_true_if = {
							amount = 10
							all_province = {
								region = west_castanor_region
								owned_by = ROOT
							}
						}
					}
					NOT = { owned_by = ROOT }
				}
			}
		}
		
		allow = {
			adm_tech = 7
			government_rank = 1
			is_free_or_tributary_trigger = yes
			is_nomad = no
			is_at_war = no
			if = {
				limit = { has_adventurer_reform = yes }
				has_reform = found_our_nation
				has_reform = local_administration
			}
			#num_of_cities = 5
			owns_core_province = 774	#Taranton
			if = {
				limit = { has_dlc = "Wealth of Nations" }
				has_personal_deity = adean
			}
			num_of_owned_provinces_with = {
				value = 10
				region = west_castanor_region
			}
		}
		effect = {
			if = {
				limit = { has_reform = adventurer_reform }
				set_country_flag = adventurer_derived_government
			}
			change_tag = B58
			set_country_flag = feudal_escann_kingdom
			set_country_flag = no_formable_culture_shift
			if = {
				limit = { has_country_flag = adventurer_derived_government	}
				adventurer_legacy_effect = yes
				country_event = { id = marcher.1 days = 1 }
				country_event = { id = adventurer.2 days = 1 }
			}
			hidden_effect = { restore_country_name = yes }
			custom_tooltip = tooltip_adenner_culture_provinces
			hidden_effect = {
				every_owned_province = {
					limit = {
						has_owner_culture = yes
						owner = {
							culture_is_human = yes
						}
					}
					change_culture = adenner
				}
			}
			if = {
				limit = { ruler_culture = ROOT ruler_is_human = yes }
				set_ruler_culture = adenner
			}
			if = {
				limit = { has_heir = yes heir_culture = ROOT heir_is_human = yes }
				set_heir_culture = adenner
			}
			if = {
				limit = { has_consort = yes consort_culture = ROOT consort_is_human = yes }
				set_consort_culture = adenner
			}
			change_primary_culture = adenner
			remove_non_electors_emperors_from_empire_effect = yes
			if = {
				limit = {
					NOT = { government_rank = 2 }
				}
				set_government_rank = 2
			}
			
			#Claims
			rohibon_area = {
				limit = {
					NOT = { owned_by = ROOT }
				}
				add_claim = B58
			}
			adenica_area = {
				limit = {
					NOT = { owned_by = ROOT }
				}
				add_claim = B58
			}
			taran_plains_area = {
				limit = {
					NOT = { owned_by = ROOT }
				}
				add_claim = B58
			}
			balmire_area = {
				limit = {
					NOT = { owned_by = ROOT }
				}
				add_claim = B58
			}
			falsemire_area = {
				limit = {
					NOT = { owned_by = ROOT }
				}
				add_claim = B58
			}
			verteben_area = {
				limit = {
					NOT = { owned_by = ROOT }
				}
				add_claim = B58
			}
			valefort_area = {
				limit = {
					NOT = { owned_by = ROOT }
				}
				add_claim = B58
			}
			
			
			add_prestige = 50
			add_country_modifier = {
				name = "centralization_modifier"
				duration = 7300
			}
			set_country_flag = formed_adenica_flag
			clr_country_flag = 	knightly_order_adventurer
			country_event = { id = adventurer.2 days = 10}
			if = {
				limit = { has_custom_ideas = no }
				country_event = { id = ideagroups.1 } #Swap Ideas
			}
			swap_non_generic_missions = yes
			hidden_effect = {
				set_variable = {
					which = adenicaChivalryMissionsCompleted
					value = 0
				}
				set_variable = {
					which = adenicaReligiousWarsWon
					value = 0
				}
				set_variable = {
					which = adenicaWarsWon
					value = 0
				}
				set_variable = {
					which = adenicaOrcWarsWon
					value = 0
				}
			}
		}
		ai_will_do = {
			factor = 2
		}
		ai_importance = 400
	}
	
	farranean_nation = {
		major = yes
		potential = {
			capital_scope = {
				OR = {
					region = west_castanor_region
					region = forlorn_vale_region
				}
			}
			OR = { 
				culture_group = escanni
				has_reform = adventurer_reform
			}
			NOT = { has_country_flag = formed_farranean_flag }
			NOT = { exists = B60 } #Farranean doesn't exist
			NOT = { tag = B56 } #Silvermere
			NOT = { tag = B31 } #Castellyr
			NOT = { tag = B33 } #Blademarches
			NOT = { tag = Z45 } #Vrorenmarch
			NOT = { tag = B58 } #Adenica
			
			NOT = { has_country_flag = feudal_escann_kingdom }	#prevents countries like Blademarches from forming
			NOT = { has_country_flag = orc_nation_formed }	#prevents orc formables from forming it
			NOT = { has_country_flag = adventurer_derived_government }	#if you've formed something like Nurcestir, you wont be able to form Castellyr. You need to form it while you're an adventurer

			OR = {
				ai = no
				is_playing_custom_nation = no
			}
			OR = {
				ai = no
				AND = {
					ai = yes
					num_of_cities = 3
				}
			}
			is_colonial_nation = no
			OR = {
				is_former_colonial_nation = no
				AND = {
					is_former_colonial_nation = yes
					ai = no
				}
			}
			normal_or_historical_nations = yes
			was_never_end_game_tag_trigger = yes
		}
		
		provinces_to_highlight = {
			OR = {
				AND = {
					province_id = 777
					OR = {
						NOT = { is_core = ROOT }
						NOT = { owned_by = ROOT }
					}
				}
				AND = {
					OR = {
						region = forlorn_vale_region
						area = valefort_area
					}
					NOT = {
						calc_true_if = {
							amount = 8
							all_province = {
								OR = {
									region = forlorn_vale_region
									area = valefort_area
								}
								owned_by = ROOT
							}
						}
					}
					NOT = { owned_by = ROOT }
				}
			}
		}
		
		allow = {
			adm_tech = 7
			government_rank = 1
			is_free_or_tributary_trigger = yes
			is_nomad = no
			is_at_war = no
			if = {
				limit = { has_adventurer_reform = yes }
				has_reform = found_our_nation
				has_reform = local_administration
			}
			#num_of_cities = 5
			owns_core_province = 777	#Escin
			num_of_owned_provinces_with = {
				value = 8
				OR = {
					region = forlorn_vale_region
					area = valefort_area
				}
			}	
		}
		effect = {
			if = {
				limit = { has_reform = adventurer_reform }
				set_country_flag = adventurer_derived_government
			}
			change_tag = B60
			set_country_flag = feudal_escann_kingdom
			set_country_flag = no_formable_culture_shift
			if = {
				limit = { has_country_flag = adventurer_derived_government }
				adventurer_legacy_effect = yes
				country_event = { id = marcher.1 days = 1 }
				country_event = { id = adventurer.2 days = 1 }
			}
			hidden_effect = { restore_country_name = yes }
			777 = {
				move_capital_effect = yes
			}
			custom_tooltip = tooltip_farrani_culture_provinces
			hidden_effect = {
				every_owned_province = {
					limit = {
						has_owner_culture = yes
						owner = {
							culture_is_human = yes
						}
					}
					change_culture = farrani
				}
			}
			if = {
				limit = { ruler_culture = ROOT ruler_is_human = yes }
				set_ruler_culture = farrani
			}
			if = {
				limit = { has_heir = yes heir_culture = ROOT heir_is_human = yes }
				set_heir_culture = farrani
			}
			if = {
				limit = { has_consort = yes consort_culture = ROOT consort_is_human = yes }
				set_consort_culture = farrani
			}
			change_primary_culture = farrani
			remove_non_electors_emperors_from_empire_effect = yes
			if = {
				limit = {
					NOT = { government_rank = 2 }
				}
				set_government_rank = 2
			}
			
			#Claims
			whistlevale_area = {
				limit = {
					NOT = { owned_by = ROOT }
				}
				add_claim = B60
			}
			cursewood_area = {
				limit = {
					NOT = { owned_by = ROOT }
				}
				add_claim = B60
			}
			valefort_area = {
				limit = {
					NOT = { owned_by = ROOT }
				}
				add_claim = B60
			}
			
			
			add_prestige = 50
			add_country_modifier = {
				name = "centralization_modifier"
				duration = 7300
			}
			set_country_flag = formed_farranean_flag
			clr_country_flag = 	knightly_order_adventurer
			country_event = { id = adventurer.2 days = 10}
			if = {
				limit = { has_custom_ideas = no }
				country_event = { id = ideagroups.1 } #Swap Ideas
			}
			# swap_non_generic_missions = yes
		}
		ai_will_do = {
			factor = 2
		}
		ai_importance = 400
	}
	
	vrorenmarch_nation = {
		major = yes
		potential = {
			culture_group = escanni
			NOT = { culture_is_half_orcish = yes }
			normal_or_historical_nations = yes
			was_never_end_game_tag_trigger = yes
			NOT = { has_country_flag = formed_vrorenmarch_flag }
			NOT = { exists = Z45 } #Vrorenmarch doesn't exist
			NOT = { tag = B56 } #Silvermere
			NOT = { tag = B33 } #Blademarches
			NOT = { tag = B31 } #Castellyr
			NOT = { tag = B58 } #Adenica
			NOT = { is_subject_of_type = acolyte_dominion }
			
			NOT = { has_country_flag = feudal_escann_kingdom }	#prevents countries like Blademarches from forming
			NOT = { has_country_flag = orc_nation_formed }	#prevents orc formables from forming it
			NOT = { has_country_flag = adventurer_derived_government }	#if you've formed something like Nurcestir, you wont be able to form Castellyr. You need to form it while you're an adventurer

			OR = {
				ai = no
				is_playing_custom_nation = no
			}
			OR = {
				ai = no
				AND = {
					ai = yes
					num_of_cities = 3
				}
			}
			is_colonial_nation = no
			OR = {
				is_former_colonial_nation = no
				AND = {
					is_former_colonial_nation = yes
					ai = no
				}
			}
		}
		provinces_to_highlight = {
			OR = {
				province_id = 740	#Bal Vroren
				province_id = 735
				#province_id = 749
				province_id = 737
				province_id = 738
				province_id = 739
				#province_id = 742
			}
			OR = {
				NOT = { owned_by = ROOT }
				NOT = { is_core = ROOT }
			}
		}
		allow = {
			adm_tech = 7
			government_rank = 1
			#is_free_or_tributary_trigger = yes #vrorenmarch defined by being a march of Castanor
			is_nomad = no
			is_at_war = no
			num_of_cities = 10
			owns_core_province = 740	#Bal Vroren
			owns_core_province = 735
			#owns_core_province = 749
			owns_core_province = 737
			owns_core_province = 738
			owns_core_province = 739
			#owns_core_province = 742
		}
		effect = {
			if = {
				limit = { has_reform = adventurer_reform }
				set_country_flag = adventurer_derived_government
			}
			change_tag = Z45
			set_country_flag = feudal_escann_kingdom
			set_country_flag = no_formable_culture_shift
			hidden_effect = { restore_country_name = yes }
			remove_non_electors_emperors_from_empire_effect = yes
			if = {
				limit = {
					NOT = { government_rank = 2 }
				}
				set_government_rank = 2
			}
			if = {
				limit = { has_country_flag = adventurer_derived_government }
				adventurer_legacy_effect = yes
				country_event = { id = adventurer.2 days = 1 }
			}
			hidden_effect = {
				every_owned_province = {
					limit = {
						has_owner_culture = yes
						owner = {
							NOT = { culture_is_half_orcish = yes }
						}
					}
					change_culture = white_reachman
				}
			}
			if = {
				limit = { ruler_culture = ROOT NOT = { ruler_is_half_orcish = yes } }
				set_ruler_culture = white_reachman
			}
			if = {
				limit = { has_heir = yes heir_culture = ROOT NOT = { heir_is_half_orcish = yes } }
				set_heir_culture = white_reachman
			}
			if = {
				limit = { has_consort = yes consort_culture = ROOT NOT = { consort_is_half_orcish = yes } }
				set_consort_culture = white_reachman
			}
			change_primary_culture = white_reachman
			
			#Claims
			vrorenmarch_area = {
				limit = {
					NOT = { owned_by = ROOT }
				}
				add_claim = Z45
			}
			gulletpeak_area = {
				limit = {
					NOT = { owned_by = ROOT }
				}
				add_claim = Z45
			}
			cedesck_area = {
				limit = {
					NOT = { owned_by = ROOT }
				}
				add_claim = Z45
			}
			vrorenwall_area = {
				limit = {
					NOT = { owned_by = ROOT }
				}
				add_claim = Z45
			}
			sondaar_area = {
				limit = {
					NOT = { owned_by = ROOT }
				}
				add_claim = Z45
			}
			wudhal_area = {
				limit = {
					NOT = { owned_by = ROOT }
				}
				add_claim = Z45
			}
			east_chillsbay_area = {
				limit = {
					NOT = { owned_by = ROOT }
				}
				add_claim = Z45
			}
			drowned_giant_isles_area = {
				limit = {
					NOT = { owned_by = ROOT }
				}
				add_claim = Z45
			}
			add_prestige = 50
			add_country_modifier = {
				name = "centralization_modifier"
				duration = 7300
			}
			set_country_flag = formed_vrorenmarch_flag
			clr_country_flag = knightly_order_adventurer
			if = {
				limit = { has_custom_ideas = no }
				country_event = { id = ideagroups.1 } #Swap Ideas
			}
		}
		ai_will_do = {
			factor = 1
		}
		ai_importance = 400
	}

	vrorenmarch_march_release = {
		major = yes
		potential = {
			tag = B32
			normal_or_historical_nations = yes
			NOT = { has_country_flag = formed_vrorenmarch_dominion }
			NOT = { exists = Z45 } #Vrorenmarch doesn't exist
			is_colonial_nation = no
			OR = {
				is_former_colonial_nation = no
				AND = {
					is_former_colonial_nation = yes
					ai = no
				}
			}
		}
		provinces_to_highlight = {
			OR = {
				province_id = 740	#Bal Vroren
				province_id = 735
			#	province_id = 749
				province_id = 737
				province_id = 738
				province_id = 739
			#	province_id = 742
			}
			OR = {
				NOT = { owned_by = ROOT }
				NOT = { is_core = ROOT }
			}
		}
		allow = {
			adm_tech = 7
			is_free_or_tributary_trigger = yes
			is_nomad = no
			is_at_war = no
			num_of_cities = 10
			owns_core_province = 740	#Bal Vroren
			owns_core_province = 735
			#owns_core_province = 749
			owns_core_province = 737
			owns_core_province = 738
			owns_core_province = 739
			#owns_core_province = 742
		}
		effect = {
			hidden_effect = {
				alenic_reach_region = {
					limit = {
						owned_by = B32
					}
					add_core = Z45
					remove_core = B32
				}
				gerudian_coast_region = {
					limit = {
						owned_by = B32
					}
					add_core = Z45
					remove_core = B32
				}
				dalr_region = {
					limit = {
						owned_by = B32
					}
					add_core = Z45
					remove_core = B32
				}
				alenic_reach_region = {
					limit = {
						has_owner_culture = yes
						owned_by = B32
					}
					change_culture = white_reachman
				}
				gerudian_coast_region = {
					limit = {
						has_owner_culture = yes
						owned_by = B32
					}
					change_culture = white_reachman
				}
				dalr_region = {
					limit = {
						has_owner_culture = yes
						owned_by = B32
					}
					change_culture = white_reachman
				}
			}
			custom_tooltip = vrorenmarch_release_tooltip
			release = Z45
			create_march = Z45
			Z45 = {
				change_religion = ROOT
				set_ruler_religion = ROOT
				set_country_flag = feudal_escann_kingdom
				change_government = monarchy
				change_primary_culture = white_reachman
				
				#Claims
				vrorenmarch_area = {
					limit = {
						NOT = { owned_by = ROOT }
					}
					add_claim = Z45
				}
				gulletpeak_area = {
					limit = {
						NOT = { owned_by = ROOT }
					}
					add_claim = Z45
				}
				cedesck_area = {
					limit = {
						NOT = { owned_by = ROOT }
					}
					add_claim = Z45
				}
				vrorenwall_area = {
					limit = {
						NOT = { owned_by = ROOT }
					}
					add_claim = Z45
				}
				sondaar_area = {
					limit = {
						NOT = { owned_by = ROOT }
					}
					add_claim = Z45
				}
				wudhal_area = {
					limit = {
						NOT = { owned_by = ROOT }
					}
					add_claim = Z45
				}
				east_chillsbay_area = {
					limit = {
						NOT = { owned_by = ROOT }
					}
					add_claim = Z45
				}
				drowned_giant_isles_area = {
					limit = {
						NOT = { owned_by = ROOT }
					}
					add_claim = Z45
				}
				set_country_flag = formed_vrorenmarch_flag
				clr_country_flag = 	knightly_order_adventurer
				country_event = {
					id = ideagroups.1
					days = 1
				}
			}
			set_country_flag = formed_vrorenmarch_dominion
		}
		ai_will_do = {
			factor = 1
			modifier = {
				factor = 0
				capital_scope = {
					region = alenic_reach_region #stop them from doing it if they don't have a capital and 30 provinces outside the Alenic Reach as a good base
				}
			}
			modifier = {
				factor = 0
				NOT = {
					num_of_owned_provinces_with = {
						value = 30
						NOT = { region = alenic_reach_region }
					}
				}
			}
		}
		#ai_importance = 400
	}
}